Transaction_Id,DateTime,Customer_Id,Customer_Name,Amount,CityName
BK-C1T453000000,2018-10-17 12:12:00,1,Alice,5612.32,Kigali
BK-C1T39000000,2018-10-17 12:15:22,1,Alice,2001,Kigali
BK-C1T735000000,2018-10-17 12:15:23,1,Alice,1987.11,Kigali
BK-C1T559000000,2018-10-17 12:15:24,1,Alice,9888.99,Kigali
BK-C2T151000000,2018-10-17 12:17:09,2,Bob,324235,Nairobi
BK-C2T247000000,2018-10-17 12:17:10,2,Bob,12224.99,Nairobi
BK-C2T951000000,2018-10-17 12:17:10,2,Bob,99221.219,Nairobi
BK-C2T951000000,2018-10-17 12:17:10,2,Bob,99221.219,Nairobi
BK-C2T951000000,2018-10-17 12:17:10,2,Bob,99221.219,Nairobi
BK-C3T80000000,2018-10-17 12:18:25,3,Charlie,1221.11,Johannesburg
BK-C3T801000000,2018-10-17 12:18:25,3,Charlie,98711,Johannesburg
BK-C3T176000000,2018-10-17 12:18:26,3,Charlie,2100119936,Johannesburg
BK-C3T559000000,2018-10-17 12:15:24,3,Charlie,2222114,Johannesburg
BK-C3T39000000,2018-10-17 12:15:22,3,Charlie,123.45,Johannesburg
